{
	"id": "6f9cc549-705b-4815-b170-568f12599814",
	"name": "CI",
	"values": [
		{
			"key": "baseURL",
			"value": "http://ts-playground:3000",
			"type": "default",
			"enabled": true
		}
	],
	"_postman_variable_scope": "environment",
	"_postman_exported_at": "2022-07-11T11:16:15.928Z",
	"_postman_exported_using": "Postman/9.22.2"
}